,,,,,,,,,,,,,,,,,,,,,,
Variable,Abbreviation,spatial aggregation choice,Switch: show_or _not,Unit,Unit longname,Temporal Resolution,Spatial Resolution,Models,Data Source,Comments,temporal aggregation for seasonal data,group 1,group 2,group 3,display relative or absolute changes?,units_for_the_graph,Description,scale_type,scale_direction,Variable - new name,Reference period,Assumptions & Limitations
Near-Surface Relative Humidity,hursAdjust,"area, pop, gdp",1,%,percent,daily,0.5°x0.5°,4,ISIMIP,,mean,Climate,,,null,%,Relative humidity is defined as the ratio of water vapour in the air to the total amount that could be held at its current temperature (saturation level). Here we consider relative humidity at 2 metres above ground. The data used for this variable have undergone a bias-adjustment procedure to correct for deviations between modelled and observed values over the time period where they overlap.,water_related,1,Relative Humidity,reference period 1986-2006,"These results were obtained with established climate models, which nevertheless depict a simplified, hence imperfect representation of the evolution of the climate systems in response to natural and anthropogenic forcings. A limited number of climate model simulations were used to derive them; therefore despite our efforts to account for this while pre-processing the data, short-term fluctuations can reflect the influence of natural climate variability rather than the response to anthropogenic climate change. Our confidence in the results decreases for high warming levels, which have been attained in a smaller number of the climate model simulations underlying these results, and especially as of 2.5-3°C of global warming. "
Near-Surface Specific Humidity,hussAdjust,"area, pop, gdp",1,kg kg-1,kilogram per kilogram,daily,0.5°x0.5°,4,ISIMIP,,mean,Climate,,,relative,%,Specific humidity is defined as the mass of water vapour contained in each kg of air. Here we consider specific humidity at 2 metres above ground. The data used for this variable have undergone a bias-adjustment procedure to correct for deviations between modelled and observed values over the time period where they overlap.,water_related,1,Specific Humidity,reference period 1986-2006,"These results were obtained with established climate models, which nevertheless depict a simplified, hence imperfect representation of the evolution of the climate systems in response to natural and anthropogenic forcings. A limited number of climate model simulations were used to derive them; therefore despite our efforts to account for this while pre-processing the data, short-term fluctuations can reflect the influence of natural climate variability rather than the response to anthropogenic climate change. Our confidence in the results decreases for high warming levels, which have been attained in a smaller number of the climate model simulations underlying these results, and especially as of 2.5-3°C of global warming."
Precipitation (Rainfall + Snowfall),prAdjust,"area, pop, gdp",1,kg m-2 s-1,kilogram per square meter per second,daily,0.5°x0.5°,4,ISIMIP,,sum,Climate,,,relative,%,"Precipitation is defined as the mass of water (both rainfall and snowfall) falling on the Earth's surface, per unit area and time. The data used for this variable have undergone a bias-adjustment procedure to correct for deviations between modelled and observed values over the time period where they overlap.",water_related,1,Precipitation,reference period 1986-2006,"These results were obtained with established climate models, which nevertheless depict a simplified, hence imperfect representation of the evolution of the climate systems in response to natural and anthropogenic forcings. A limited number of climate model simulations were used to derive them; therefore despite our efforts to account for this while pre-processing the data, short-term fluctuations can reflect the influence of natural climate variability rather than the response to anthropogenic climate change. Our confidence in the results decreases for high warming levels, which have been attained in a smaller number of the climate model simulations underlying these results, and especially as of 2.5-3°C of global warming."
Snowfall Flux,prsnAdjust,"area, pop, gdp",1,kg m-2 s-1,kilogram per square meter per second,daily,0.5°x0.5°,4,ISIMIP,,mean,Climate,,,relative,%,"Snowfall is defined as the mass of water falling on the Earth's surface in the form of snow, per unit area and time. The data used for this variable have undergone a bias-adjustment procedure to correct for deviations between modelled and observed values over the time period where they overlap.",water_related,1,Snowfall,reference period 1986-2006,"These results were obtained with established climate models, which nevertheless depict a simplified, hence imperfect representation of the evolution of the climate systems in response to natural and anthropogenic forcings. A limited number of climate model simulations were used to derive them; therefore despite our efforts to account for this while pre-processing the data, short-term fluctuations can reflect the influence of random natural climate variability rather than the response to anthropogenic climate change. Small-scale spatial features (locally large increases or decreases) may also reflect the influence of natural climate variability. Our confidence in the results decreases for high warming levels, which have been attained in a smaller number of the climate model simulations underlying these results, and especially as of 2.5-3°C of global warming."
Surface Air Pressure,psAdjust,"area, pop, gdp",1,Pa,Pascal,daily,0.5°x0.5°,4,ISIMIP,,mean,Climate,,,absolute,Pa,"Atmospheric pressure quantifies the force exerted by the weight of the column of air situated above a given location, per unit area. Here we consider atmospheric pressure at 2 metres above ground. The data used for this variable have undergone a bias-adjustment procedure to correct for deviations between modelled and observed values over the time period where they overlap.",generic,1,Atmospheric Pressure (surface),reference period 1986-2006,"These results were obtained with established climate models, which nevertheless depict a simplified, hence imperfect representation of the evolution of the climate systems in response to natural and anthropogenic forcings. A limited number of climate model simulations were used to derive them; therefore despite our efforts to account for this while pre-processing the data, short-term fluctuations can reflect the influence of natural climate variability rather than the response to anthropogenic climate change. Our confidence in the results decreases for high warming levels, which have been attained in a smaller number of the climate model simulations underlying these results, and especially as of 2.5-3°C of global warming."
Sea-Level Pressure,pslAdjust,"area, pop, gdp",1,Pa,Pascal,daily,0.5°x0.5°,4,ISIMIP,,mean,Climate,,,absolute,Pa,"Atmospheric pressure quantifies the force that would be exerted by the weight of the column of air situated above a given location, per unit area. Since atmospheric pressure decreases with altitude, here we inspect the atmospheric pressure at 2 metres above ground but adjusted as if the location of interest was set at sea level. This allows comparison of locations situated at different altitudes. The data used for this variable have undergone a bias-adjustment procedure to correct for deviations between modelled and observed values over the time period where they overlap.",generic,1,Atmospheric pressure (adjusted to sea level),reference period 1986-2006,"These results were obtained with established climate models, which nevertheless depict a simplified, hence imperfect representation of the evolution of the climate systems in response to natural and anthropogenic forcings. A limited number of climate model simulations were used to derive them; therefore despite our efforts to account for this while pre-processing the data, short-term fluctuations can reflect the influence of natural climate variability rather than the response to anthropogenic climate change. Our confidence in the results decreases for high warming levels, which have been attained in a smaller number of the climate model simulations underlying these results, and especially as of 2.5-3°C of global warming."
Surface Downwelling Longwave Radiation,rldsAdjust,"area, pop, gdp",1,W m-2,Watt per square meter,daily,0.5°x0.5°,4,ISIMIP,,mean,Climate,,,relative,%,Downwelling longwave radiation is defined as the downward energy flux in the form of infrared light that reaches the Earth's surface. The data used for this variable have undergone a bias-adjustment procedure to correct for deviations between modelled and observed values over the time period where they overlap.,good_bad,1,Downwelling Longwave Radiation,reference period 1986-2006,"These results were obtained with established climate models, which nevertheless depict a simplified, hence imperfect representation of the evolution of the climate systems in response to natural and anthropogenic forcings. A limited number of climate model simulations were used to derive them; therefore despite our efforts to account for this while pre-processing the data, short-term fluctuations can reflect the influence of natural climate variability rather than the response to anthropogenic climate change. Our confidence in the results decreases for high warming levels, which have been attained in a smaller number of the climate model simulations underlying these results, and especially as of 2.5-3°C of global warming."
Surface Downwelling Shortwave Radiation,rsdsAdjust,"area, pop, gdp",0,W m-2,Watt per square meter,daily,0.5°x0.5°,4,ISIMIP,,mean,Climate,,,relative,%,Downwelling shortwave radiation is defined as the downward energy flux in the form of visible light that reaches the Earth's surface. The data used for this variable have undergone a bias-adjustment procedure to correct for deviations between modelled and observed values over the time period where they overlap.,good_bad,1,Downwelling Shortwave Radiation,reference period 1986-2006,"These results were obtained with established climate models, which nevertheless depict a simplified, hence imperfect representation of the evolution of the climate systems to natural and anthropogenic forcings. A limited number of climate model simulations were used to derive them; therefore despite our efforts to account for this while pre-processing the data, short-term variations can reflect the influence of natural climate variability rather than the response to anthropogenic climate change. Our confidence in the results decreases for high warming levels, which have been attained in a smaller number of the climate model simulations underlying these results, and especially as of 2.5-3°C of global warming."
Near-Surface Wind Speed,sfcWindAdjust,"area, pop, gdp",1,m s-1,meter per second,daily,0.5°x0.5°,4,ISIMIP,,mean,Climate,,,relative,%,Wind speed quantifies the velocity of an air mass. Here we consider the wind speed 10 metres above ground. The data used for this variable have undergone a bias-adjustment procedure to correct for deviations between modelled and observed values over the time period where they overlap.,generic,1,Wind Speed,reference period 1986-2006,"These results were obtained with established climate models, which nevertheless depict a simplified, hence imperfect representation of the evolution of the climate systems in response to natural and anthropogenic forcings. A limited number of climate model simulations were used to derive them; therefore despite our efforts to account for this while pre-processing the data, short-term fluctuations can reflect the influence of natural climate variability rather than the response to anthropogenic climate change. Our confidence in the results decreases for high warming levels, which have been attained in a smaller number of the climate model simulations underlying these results, and especially as of 2.5-3°C of global warming."
Near-Surface Air Temperature,tasAdjust,"area, pop, gdp",1,°C,degrees Celsius,daily,0.5°x0.5°,4,ISIMIP,,mean,Climate,,,absolute,degrees C,Air temperature refers to the temperature of air masses near the Earth's surface (2 metres above the ground in this case). The data used for this variable have undergone a bias-adjustment procedure to correct for deviations between modelled and observed values over the time period where they overlap.,good_bad,1,Air Temperature,reference period 1986-2006,"These results were obtained with established climate models, which nevertheless depict a simplified, hence imperfect representation of the evolution of the climate systems in response to natural and anthropogenic forcings. A limited number of climate model simulations were used to derive them; therefore despite our efforts to account for this while pre-processing the data, short-term fluctuations can reflect the influence of natural climate variability rather than the response to anthropogenic climate change. Our confidence in the results decreases for high warming levels, which have been attained in a smaller number of the climate model simulations underlying these results, and especially as of 2.5-3°C of global warming."
Daily Maximum Near-Surface Air Temperature,tasmaxAdjust,"area, pop, gdp",1,°C,degrees Celsius,daily,0.5°x0.5°,4,ISIMIP,,max,Climate,,,absolute,degrees C,"Daily maximum air temperature is defined as the peak air temperature reached in a day, in this case at 2 metres above the ground. The data used for this variable have undergone a bias-adjustment procedure to correct for deviations between modelled and observed values over the time period where they overlap.",good_bad,1,Daily Maximum Air Temperature,reference period 1986-2006,"These results were obtained with established climate models, which nevertheless depict a simplified, hence imperfect representation of the evolution of the climate systems in response to natural and anthropogenic forcings. A limited number of climate model simulations were used to derive them; therefore despite our efforts to account for this while pre-processing the data, short-term fluctuations can reflect the influence of natural climate variability rather than the response to anthropogenic climate change. Our confidence in the results decreases for high warming levels, which have been attained in a smaller number of the climate model simulations underlying these results, and especially as of 2.5-3°C of global warming."
Daily Minimum Near-Surface Air Temperature,tasminAdjust,"area, pop, gdp",1,°C,degrees Celsius,daily,0.5°x0.5°,4,ISIMIP,,min,Climate,,,absolute,degrees C,"Daily minimum air temperature is defined as the lowest air temperature reached in a day, in this case at 2 metres above the ground. The data used for this variable have undergone a bias-adjustment procedure to correct for deviations between modelled and observed values over the time period where they overlap.",good_bad,1,Daily Minimum Air Temperature,reference period 1986-2006,"These results were obtained with established climate models, which nevertheless depict a simplified, hence imperfect representation of the evolution of the climate systems in response to natural and anthropogenic forcings. A limited number of climate model simulations were used to derive them; therefore despite our efforts to account for this while pre-processing the data, short-term fluctuations can reflect the influence of natural climate variability rather than the response to anthropogenic climate change. Our confidence in the results decreases for high warming levels, which have been attained in a smaller number of the climate model simulations underlying these results, and especially as of 2.5-3°C of global warming."
Snow Depth,snd,"area, pop, gdp",0,m,meter,monthly,0.5°x0.5°,5,ISIMIP,,sum ??,Climate,,,relative,%,Snow depth is defined as the thickness of the snow layer covering the ground.,water_related,1,Snow Depth,reference period 1986-2006,"These results were obtained with established land surface or hydrological models, which nevertheless depict a simplified, hence imperfect representation of the evolution of snow depth under climate change. They were forced with a limited number of climate model simulations; therefore despite our efforts to account for this while pre-processing the data, short-term fluctuations can reflect the influence of natural climate variability rather than the response to anthropogenic climate change. Small-scale spatial features (locally large increases or decreases) may also reflect the influence of natural climate variability. Our confidence in the results decreases for high warming levels, which have been attained in a smaller number of the climate model simulations underlying these results, and especially as of 2.5-3°C of global warming."
Annual Maximum Thaw Depth,thawdepth,"area, pop, gdp",0,m,meter,yearly,0.5°x0.5°,4,ISIMIP,,mean,Permafrost,,,absolute,m,"In permafrost soils, annual maximum thaw depth is defined as the level that is closest to the ground at which the soil will normally thaw each year.",water_related,-1,Annual Maximum Thaw Depth,reference period 1986-2006,"These results were obtained with established land surface models, which nevertheless depict a simplified, hence imperfect representation of the evolution of permafrost under climate change. They were forced with a limited number of climate model simulations; therefore despite our efforts to account for this while pre-processing the data, short-term variations can reflect the influence of natural climate variability rather than the response to anthropogenic climate change. Our confidence in the results decreases for high warming levels, which have been attained in a smaller number of the climate model simulations underlying these results, and especially as of 2.5-3°C of global warming."
Surface Runoff,qs,"area, pop, gdp",1,kg m-2 s-1,kilogram per square meter per second,monthly,0.5°x0.5°,12,ISIMIP,,mean,Freshwater,,,relative,%,"Surface runoff (also called overland flow) describes the flow of water occurring on the Earth's surface when excess water, e.g. rainwater, can no longer be absorbed by the soil.",water_related,1,Surface Runoff,reference period 1986-2006,"These results were obtained with established land surface or hydrological models, which nevertheless depict a simplified, hence imperfect representation of the evolution of surface runoff under climate change. They were forced with a limited number of climate model simulations; therefore despite our efforts to account for this while pre-processing the data, short-term fluctuations can reflect the influence of natural climate variability rather than the response to anthropogenic climate change. Our confidence in the results decreases for high warming levels, which have been attained in a smaller number of the climate model simulations underlying these results, and especially as of 2.5-3°C of global warming."
Discharge,dis,"area, pop, gdp",1,m3 s-1,cubic meters per second,daily,0.5°x0.5°,15,ISIMIP,,sum ??,Freshwater,,,relative,%,Discharge (also called streamflow) is the volume of water flowing through a river or stream channel.,water_related,1,River Discharge,reference period 1986-2006,"These results were obtained with established land surface or hydrological models, which nevertheless depict a simplified, hence imperfect representation of the evolution of discharge under climate change. They were forced with a limited number of climate model simulations; therefore despite our efforts to account for this while pre-processing the data, short-term fluctuations can reflect the influence of natural climate variability rather than the response to anthropogenic climate change. Land-use and irrigation patterns, as well as water use for human activities are assumed to be constant in the future. Our confidence in the results decreases for high warming levels, which have been attained in a smaller number of the climate model simulations underlying these results, and especially as of 2.5-3°C of global warming."
Maximum of Daily Discharge,maxdis,"area, pop, gdp",1,m3 s-1,cubic meters per second,monthly,0.5°x0.5°,2,ISIMIP,,max ?,Freshwater,,,relative,%,Maximum of daily discharge is defined as the peak volume of water flowing through a river or stream channel in a day.,water_related,1,Maximum of Daily River Discharge,reference period 1986-2006,"These results were obtained with established land surface or hydrological models, which nevertheless depict a simplified, hence imperfect representation of the evolution of discharge under climate change. They were forced with a limited number of climate model simulations; therefore despite our efforts to account for this while pre-processing the data, short-term fluctuations can reflect the influence of natural climate variability rather than the response to anthropogenic climate change. Land-use and irrigation patterns, as well as water use for human activities are assumed to be constant in the future. Our confidence in the results decreases for high warming levels, which have been attained in a smaller number of the climate model simulations underlying these results, and especially as of 2.5-3°C of global warming."
Minimum of Daily Discharge,mindis,"area, pop, gdp",1,m3 s-1,cubic meters per second,monthly,0.5°x0.5°,2,ISIMIP,,min ?,Freshwater,,,relative,%,Minimum of daily discharge is defined as the lowest volume of water flowing through a river or stream channel in a day.,water_related,1,Minimum of Daily River Discharge,reference period 1986-2006,"These results were obtained with established land surface or hydrological models, which nevertheless depict a simplified, hence imperfect representation of the evolution of discharge under climate change. They were forced with a limited number of climate model simulations; therefore despite our efforts to account for this while pre-processing the data, short-term fluctuations can reflect the influence of natural climate variability rather than the response to anthropogenic climate change. Land-use and irrigation patterns, as well as water use for human activities are assumed to be constant in the future. Our confidence in the results decreases for high warming levels, which have been attained in a smaller number of the climate model simulations underlying these results, and especially as of 2.5-3°C of global warming."
Total Soil Moisture Content,soilmoist,"area, pop, gdp",1,kg m-2,kilogram per square meter,monthly,0.5°x0.5°,16,ISIMIP,,mean,Agriculture,Freshwater,,relative,%,"Total soil moisture content quantifies water stored in soil, per unit area. Here we consider soil moisture contained within the root zone, i.e. until a depth of approximately 1 metre.",water_related,1,Soil Moisture,reference period 1986-2006,"These results were obtained with established land surface or hydrological models, which nevertheless depict a simplified, hence imperfect representation of the evolution of soil moisture under climate change. They were forced with a limited number of climate model simulations; therefore despite our efforts to account for this while pre-processing the data, short-term fluctuations can reflect the influence of natural climate variability rather than the response to anthropogenic climate change. Our confidence in the results decreases for high warming levels, which have been attained in a smaller number of the climate model simulations underlying these results, and especially as of 2.5-3°C of global warming."
Yields (maize),yield_maize_co2,"area, pop, gdp",1,t ha-1 (dry matter),tons of dry matter per hectar,per growing season,0.5°x0.5°,4,ISIMIP,,sum,Agriculture,,,relative,%,"Maize yields were calculated by assuming that the cultivated areas of both rainfed and irrigated maize will remain constant through the 21st century. Their projected changes hence only reflect the future evolution of climate, and not that of agricultural management practices.",agriculture,1,Maize Yield,reference period 1986-2006,"These results were obtained with established global gridded crop models, which nevertheless depict a simplified, hence imperfect representation of the evolution of crop systems under climate change. In particular, they have not been calibrated for every country. They were forced with a limited number of climate model simulations, therefore short-term fluctuations can reflect the influence of natural climate variability rather than the response to anthropogenic climate change. CO2 fertilisation is accounted for in the models, but there is considerable uncertainty about its influence on future yields. Projections are shown over areas where maize was grown in year 2010, assuming the same repartition of irrigated and rainfed areas in the future. Our confidence in the results decreases for high warming levels, which have been attained in a smaller number of the climate model simulations underlying these results, and especially as of 2.5-3°C of global warming."
Yields (rice),yield_rice_co2,"area, pop, gdp",1,t ha-1 (dry matter),tons of dry matter per hectar,per growing season,0.5°x0.5°,4,ISIMIP,,sum,Agriculture,,,relative,%,"Rice yields were calculated by assuming that cultivated areas of both rainfed and irrigated maize will remain constant through the 21st century. Their projected changes hence only reflect the future evolution of climate, and not that of agricultural management practices.",agriculture,1,Rice Yield,reference period 1986-2006,"These results were obtained with established global gridded crop models, which nevertheless depict a simplified, hence imperfect representation of the evolution of crop systems under climate change. In particular, they have not been calibrated for every country. They were forced with a limited number of climate model simulations, therefore short-term fluctuations can reflect the influence of natural climate variability rather than the response to anthropogenic climate change. CO2 fertilisation is accounted for in the models, but there is considerable uncertainty about its influence on future yields. Projections are shown over areas where rice was grown in year 2010, assuming the same repartition of irrigated and rainfed areas in the future. Our confidence in the results decreases for high warming levels, which have been attained in a smaller number of the climate model simulations underlying these results, and especially as of 2.5-3°C of global warming."
Yields (soy),yield_soy_co2,"area, pop, gdp",1,t ha-1 (dry matter),tons of dry matter per hectar,per growing season,0.5°x0.5°,4,ISIMIP,,sum,Agriculture,,,relative,%,"Soy yields were calculated by assuming that the cultivated areas of both rainfed and irrigated maize will remain constant through the 21st century. Their projected changes hence only reflect the future evolution of climate, and not that of agricultural management practices.",agriculture,1,Soy Yield,reference period 1986-2006,"These results were obtained with established global gridded crop models, which nevertheless depict a simplified, hence imperfect representation of the evolution of crop systems under climate change. In particular, they have not been calibrated for every country. They were forced with a limited number of climate model simulations, therefore short-term fluctuations can reflect the influence of natural climate variability rather than the response to anthropogenic climate change. CO2 fertilisation is accounted for in the models, but there is considerable uncertainty about its influence on future yields. Projections are shown over areas where soy was grown in year 2010, assuming the same repartition of irrigated and rainfed areas in the future. Our confidence in the results decreases for high warming levels, which have been attained in a smaller number of the climate model simulations underlying these results, and especially as of 2.5-3°C of global warming."
Yields (wheat),yield_wheat_co2,"area, pop, gdp",1,t ha-1 (dry matter),tons of dry matter per hectar,per growing season,0.5°x0.5°,4,ISIMIP,,sum,Agriculture,,,relative,%,"Wheat yields were calculated by assuming that the cultivated areas of both rainfed and irrigated maize will remain constant through the 21st century. Their projected changes hence only reflect the future evolution of climate, and not that of agricultural management practices.",agriculture,1,Wheat Yield,reference period 1986-2006,"These results were obtained with established global gridded crop models, which nevertheless depict a simplified, hence imperfect representation of the evolution of crop systems under climate change. In particular, they have not been calibrated for every country. They were forced with a limited number of climate model simulations, therefore short-term fluctuations can reflect the influence of natural climate variability rather than the response to anthropogenic climate change. CO2 fertilisation is accounted for in the models, but there is considerable uncertainty about its influence on future yields. Projections are shown over areas where wheat was grown in year 2010, assuming the same repartition of irrigated and rainfed areas in the future. Our confidence in the results decreases for high warming levels, which have been attained in a smaller number of the climate model simulations underlying these results, and especially as of 2.5-3°C of global warming."
Land fraction exposed to river floods,fldfrc,"area, pop, gdp",1,%,percent,yearly,150 arcsec x 150acsec,,ISIMIP-Secondary,,max,Extreme events,,,null,%,Land fraction annually exposed to river floods is defined as the land area fraction which is flooded on average during the most severe flood of the year. A flood is considered to occur in a specific location if annual maximum river discharge exceeds the local protection standard from the FLOPROS database.,water_related,1,Land fraction annually exposed to River Floods,reference period 1986-2006,"These results were obtained with established hydrological and river models, which nevertheless depict a simplified, hence imperfect representation of the evolution of flooding under climate change. They were forced with a limited number of climate model simulations; therefore despite our efforts to account for this while pre-processing the data, short-term fluctuations can reflect the influence of natural climate variability rather than the response to anthropogenic climate change. Land-use and irrigation patterns, as well as water use for human activities and flood protection standards are assumed to be constant in the future. Our confidence in the results decreases for high warming levels, which have been attained in a smaller number of the climate model simulations underlying these results, and especially as of 2.5-3°C of global warming."
River flood depth,flddph,"area, pop, gdp",1,m,meter,yearly,150 arcsec x 150acsec,,ISIMIP-Secondary,,max,Extreme events,,,relative,%,River flood depth is defined as the flood depth attained during the most severe flood of the year. A flood is considered to occur in a specific location only if annual maximum discharge exceeds the local protection standard from the FLOPROS database.,water_related,1,River Flood Depth,reference period 1986-2006,"These results were obtained with established hydrological and river models, which nevertheless depict a simplified, hence imperfect representation of the evolution of flooding under climate change. They were forced with a limited number of climate model simulations; therefore despite our efforts to account for this while pre-processing the data, short-term fluctuations can reflect the influence of natural climate variability rather than the response to anthropogenic climate change. Land-use and irrigation patterns, as well as water use for human activities and flood protection standards are assumed to be constant in the future. Our confidence in the results decreases for high warming levels, which have been attained in a smaller number of the climate model simulations underlying these results, and especially as of 2.5-3°C of global warming."
Land area exposed to floods,ler,area,0,%,percent,yearly,0.5°x0.5°,3,ISIMIP - Secondary Output,see above,,Extreme events,,,,%,"Land area exposed to river floods is defined as the fraction of each grid cell, with a resolution of 0.5°, in which floods occur at least once a year. Flooding is considered to happen whenever the daily discharge locally exceeds the pre-industrial 100-year return level (i.e., the flood event magnitude that would have occurred once every 100 years, on average, in the absence of climate change).",water_related,1,Land area exposed to River Floods,reference period 1986-2006,"These results were obtained with established hydrological and river models, which nevertheless depict a simplified, hence imperfect representation of the evolution of flooding under climate change. They were forced with a limited number of climate model simulations; therefore despite our efforts to account for this while pre-processing the data, short-term variations can reflect the influence of natural climate variability rather than the response to anthropogenic climate change. Land-use and irrigation patterns, as well as water use for human activities are assumed to be constant in the future. Our confidence in the results decreases for high warming levels, which have been attained in a smaller number of the climate model simulations underlying these results, and especially as of 2.5-3°C of global warming."
Population exposed to floods,per,pop,0,%,percent,yearly,0.5°x0.5°,3,ISIMIP - Secondary Output,see above,,Extreme events,,,relative,%,"Population exposed to river floods is defined as the population living in each grid cell, of 0.5° resolution, in which floods occur at least once a year. It is obtained by multiplying the total population living in a grid cell by the land area fraction affected at least once a year by a flood. Flooding is considered to happen whenever the daily discharge locally exceeds the pre-industrial 100-year return level (i.e., the flood event magnitude that would have occured, on average, once every 100 years, in the absence of climate change).",good_bad,1,Population exposed to River Floods,reference period 1986-2006,"These results were obtained with established hydrological and river models, which nevertheless depict a simplified, hence imperfect representation of the evolution of flooding under climate change. They were forced with a limited number of climate model simulations; therefore despite our efforts to account for this while pre-processing the data, short-term variations can reflect the influence of natural climate variability rather than the response to anthropogenic climate change. Population, land-use and irrigation patterns, as well as water use for human activities are assumed to be constant in the future. Our confidence in the results decreases for high warming levels, which have been attained in a smaller number of the climate model simulations underlying these results, and especially as of 2.5-3°C of global warming."
Land area exposed to crop failure,lec,area,1,%,percent,yearly,0.5°x0.5°,3,ISIMIP - Secondary Output,see above,,Extreme events,Agriculture,,null,%,"Land fraction annually exposed to crop failures is defined as the fraction of a grid cell, of 0.5° resolution, in which one of the four considered crops (maize, wheat, soybean, and rice) is grown, and where its annual yield on average falls short of the 2.5th percentile of the pre-industrial reference distribution (i.e., an exceptionally low yield that would occur on average only 2-3 years per century in the absence of climate change). All crop-specific land area fractions exposed are added together.",agriculture,-1,Land fraction annually exposed to Crop Failures,reference period 1986-2006,"These results were obtained with established global crop models, which nevertheless depict a simplified, hence imperfect representation of the evolution of crop systems under climate change. They were forced with a limited number of climate model simulations; therefore despite our efforts to account for this while pre-processing the data, short-term fluctuations can reflect the influence of natural climate variability rather than the response to anthropogenic climate change. Land-use and irrigation patterns, as well as agricultural management practices are assumed to be constant in the future. Our confidence in the results decreases for high warming levels, which have been attained in a smaller number of the climate model simulations underlying these results, and especially as of 2.5-3°C of global warming."
Population exposed to crop failure,pec,pop,1,%,percent,yearly,0.5°x0.5°,3,ISIMIP - Secondary Output,see above,,Extreme events,Agriculture,,null,%,"Population annually exposed to crop failures is defined as the fraction of the labour force working in agriculture multiplied by the land fraction annually exposed to crop failures, and divided by the grid cell area fraction used for agriculture. Land fraction annually exposed to crop failures is defined as the fraction of a grid cell, of 0.5° resolution, in which one of the four considered crops (maize, wheat, soybean, and rice) is grown, and where its annual yield on average falls short of the 2.5th percentile of the pre-industrial reference distribution (i.e., an exceptionally low yield that would occur on average only 2-3 years per century in the absence of climate change). All crop-specific land area fractions exposed are added together.",good_bad,1,Population annually exposed to Crop Failures,reference period 1986-2006,"These results were obtained with established global crop models, which nevertheless depict a simplified, hence imperfect representation of the evolution of crop systems under climate change. They were forced with a limited number of climate model simulations; therefore despite our efforts to account for this while pre-processing the data, short-term fluctuations can reflect the influence of natural climate variability rather than the response to anthropogenic climate change. Population, land-use and irrigation patterns, as well as agricultural management practices are assumed to be constant in the future. Our confidence in the results decreases for high warming levels, which have been attained in a smaller number of the climate model simulations underlying these results, and especially as of 2.5-3°C of global warming."
Land area exposed to wildfire,lew,area,1,%,percent,yearly,0.5°x0.5°,5,ISIMIP - Secondary Output,see above,,Extreme events,,,null,%,"Land fraction annually exposed to wildfires describes the land area fraction, within a grid cell of 0.5° resolution, burnt on average at least once a year by wildfires.",agriculture,-1,Land fraction annually exposed to Wildfires,reference period 1986-2006,"These results were obtained with established global vegetation models, which nevertheless depict a simplified, hence imperfect representation of the evolution of biomes under climate change. They were forced with a limited number of climate model simulations; therefore despite our efforts to account for this while pre-processing the data, short-term fluctuations can reflect the influence of natural climate variability rather than the response to anthropogenic climate change. Land-use and irrigation patterns, as well as fire management practices are assumed to be constant in the future. Our confidence in the results decreases for high warming levels, which have been attained in a smaller number of the climate model simulations underlying these results, and especially as of 2.5-3°C of global warming."
Population exposed to wildfire,pew,pop,1,%,percent,yearly,0.5°x0.5°,5,ISIMIP - Secondary Output,see above,,Extreme events,,,null,%,"Population annually exposed to wildfires describes the land area fraction, within a grid cell of 0.5° resolution, burnt on average at least once a year by wildfires, and multiplied by the total population of that grid cell.",good_bad,1,Population annually exposed to Wildfires,reference period 1986-2006,"These results were obtained with established global vegetation models, which nevertheless depict a simplified, hence imperfect representation of the evolution of biomes under climate change. They were forced with a limited number of climate model simulations; therefore despite our efforts to account for this while pre-processing the data, short-term fluctuations can reflect the influence of natural climate variability rather than the response to anthropogenic climate change. Population, land-use and irrigation patterns, as well as fire management practices are assumed to be constant in the future. Our confidence in the results decreases for high warming levels, which have been attained in a smaller number of the climate model simulations underlying these results, and especially as of 2.5-3°C of global warming."
Land area exposed to drought,led,area,0,%,percent,yearly,0.5°x0.5°,8,ISIMIP - Secondary Output,see above,,Extreme events,Freshwater,,absolute,%,"Land area exposed to drought, in a grid cell of 0.5° resolution, equals the total area of that grid cell every year it is struck by a drought, and zero otherwise. It thus reflects the frequency at which this grid cell experiences a drought. In this case drought is considered to occur when monthly soil moisture falls below the 2.5th percentile of its pre-industrial reference distribution (i.e., below an exceptionally low level that would be attained on average only 2-3 years in a century in the absence of climate change), for at least seven consecutive months.",water_related,-1,Land fraction annually exposed to Drought,reference period 1986-2006,"These results were obtained with established hydrological or land surface models, which nevertheless depict a simplified, hence imperfect representation of the evolution of soil moisture under climate change. They were forced with a limited number of climate model simulations; therefore despite our efforts to account for this while pre-processing the data, short-term fluctuations can reflect the influence of natural climate variability rather than the response to anthropogenic climate change. Land-use and irrigation patterns, as well as water use for human activities are assumed to be constant in the future. Our confidence in the results decreases for high warming levels, which have been attained in a smaller number of the climate model simulations underlying these results, and especially as of 2.5-3°C of global warming."
Population exposed to drought,ped,pop,0,%,percent,yearly,0.5°x0.5°,8,ISIMIP - Secondary Output,see above,,Extreme events,Freshwater,,absolute,%,"Population exposed to drought, in a grid cell of 0.5° resolution, equals the total rural population living in that grid cell every year it is struck by a drought, and zero otherwise. It thus reflects the part of this rural population which experiences a drought on average every year. In this case drought is considered to occur when monthly soil moisture falls below the 2.5th percentile of its pre-industrial reference distribution (i.e., below an exceptionally low level that would be attained on average only 2-3 years in a century in the absence of climate change), for at least seven consecutive months.",good_bad,1,Population exposed to Drought,reference period 1986-2006,"These results were obtained with established hydrological or land surface models, which nevertheless depict a simplified, hence imperfect representation of the evolution of soil moisture under climate change. They were forced with a limited number of climate model simulations; therefore despite our efforts to account for this while pre-processing the data, short-term fluctuations can reflect the influence of natural climate variability rather than the response to anthropogenic climate change. Population, land-use and irrigation patterns, as well as water use for human activities are assumed to be constant in the future. Our confidence in the results decreases for high warming levels, which have been attained in a smaller number of the climate model simulations underlying these results, and especially as of 2.5-3°C of global warming."
Land area exposed to heatwave,leh,area,1,%,percent,yearly,0.5°x0.5°,1,ISIMIP - Secondary Output,see above,correlation with HWMId,Extreme events,,,null,%,"Land fraction annually exposed to heatwaves, in a grid cell of 0.5° resolution, reflects the frequency at which this grid cell is struck by heatwaves. In this context, a heatwave is considered to occur when both a relative indicator based on air temperature and an absolute indicator based on the air temperature and relative humidity exceed exceptionally high values.",good_bad,1,Land fraction annually exposed to Heatwaves,reference period 1986-2006,"These results were obtained with established climate models, which nevertheless depict a simplified, hence imperfect representation of the evolution of temperature and relative humidity under climate change. A limited number of climate model simulations were used to derive them; therefore despite our efforts to account for this while pre-processing the data, short-term fluctuations can reflect the influence of natural climate variability rather than the response to anthropogenic climate change. Our confidence in the results decreases for high warming levels, which have been attained in a smaller number of the climate model simulations underlying these results, and especially as of 2.5-3°C of global warming."
Population exposed to heatwave,peh,pop,1,%,percent,yearly,0.5°x0.5°,1,ISIMIP - Secondary Output,see above,,Extreme events,,,null,%,"Population annually exposed to heatwaves, in a grid cell of 0.5° resolution, reflects the part of the population it contains which experiences a heatwave on average every year. A heatwave is here considered to occur when both a relative indicator based on air temperature and an absolute indicator based on air temperature and relative humidity exceed exceptionally high values.",good_bad,1,Population exposed to Heatwaves,reference period 1986-2006,"These results were obtained with established climate models, which nevertheless depict a simplified, hence imperfect representation of the evolution of temperature and relative humidity under climate change. A limited number of climate model simulations were used to derive them; therefore despite our efforts to account for this while pre-processing the data, short-term fluctuations can reflect the influence of natural climate variability rather than the response to anthropogenic climate change. Population is assumed to be constant in the future. Our confidence in the results decreases for high warming levels, which have been attained in a smaller number of the climate model simulations underlying these results, and especially as of 2.5-3°C of global warming."
Heat stress impact on labour productivity,ec1,"area, pop, gdp",1,%,percent,yearly,0.5°x0.5°,,ISIMIP - Secondary Output,,,Economic damages,Extreme events,,absolute,%,"Heat stress impact on labour productivity indicates the percentage decrease in working hours under hot and humid climate conditions, due to the reduced capacity of the human body to perform physical labour.",good_bad,-1,Labour Productivity due to Heat Stress,reference period 1986-2006,"The projected changes in temperature and relative humidity underlying these results were obtained with established climate models, which nevertheless depict a simplified, hence imperfect representation of the evolution of heatwave conditions under climate change. Furthermore, a limited number of climate models were used to derive them; therefore despite our efforts to account for this while pre-processing the data, short-term fluctuations can reflect the influence of natural climate variability rather than the response to anthropogenic climate change. Here we quantify heat stress by looking at wet bulb globe temperature, and use a combination of five exposure response functions to translate projected variations in wet bulb globe temperature into changes in labour productivity. However, these functions have been derived from field studies focusing on the impact of heat stress on the conduction of tasks specific to a work field (e.g., in agriculture) or a location; hence there is substantial uncertainty around their applicability at global scale. Our confidence in the results decreases for high warming levels, which have been attained in a smaller number of the climate model simulations underlying these results, and especially as of 2.5-3°C of global warming."
Annual Expected Damages - River Flood,ec2,other,1,%,percent,yearly,150arcsec,,CLIMADA,,,Economic damages,Extreme events,,relative,,"The annual expected damage by river floods is given in 2005 US$, and is defined as the level of damage from such events that is expected to occur every year on average.",good_bad,1,Annual Expected Damage from River Floods,reference year 2020,"Projected changes in flood fraction and flood depth were obtained with established global hydrological models, which nevertheless depict a simplified, hence imperfect representation of the evolution of flooding under climate change. They were forced with a limited number of climate model simulations; therefore despite our efforts to account for this while pre-processing the data, short-term fluctuations can reflect the influence of natural climate variability rather than the response to anthropogenic climate change. Furthermore, a global time-independent damage function was applied to translate the changes in flood fraction and depth into damages, thus not accounting for country-specific vulnerabilities and their future changes. Our confidence in the results decreases for high warming levels, which have been attained in a smaller number of the climate model simulations underlying these results, and especially as of 2.5-3°C of global warming."
Annual Expected Damages - Tropical Cyclones,ec3,other,1,%,percent,yearly,150arcsec,,CLIMADA,,,Economic damages,Extreme events,,relative,,"The annual expected damage by river floods is given in 2005 US$, and is defined as the level of damage from such events that is expected to occur every year on average.",good_bad,1,Annual Expected Damage from Tropical Cyclones,reference year 2020,"Projected changes in cyclone tracks are generated in a probabilistic way by perturbing the direction of historical storm tracks. Changes in their frequency and intensity are derived from estimates of the current literature. This methodology encounters limitations in areas with few historical events, where it cannot account for potential track locations in the future. The damages are derived with time-independent damage functions, thus do not account for country-specific vulnerabilities and their future changes. Our confidence in the results decreases for high warming levels, which have been attained in a smaller number of the climate model simulations underlying these results, and especially as of 2.5-3°C of global warming."
1-in-100-Year Expected Damages - Tropical Cyclones,ec4,other,1,%,percent,yearly,150arcsec,,CLIMADA,,,Economic damages,Extreme events,,relative,,"The 1-in-100-year expected damage by tropical cyclones is given in 2005 US$, and is defined as the level of damage from such events statistically expected to occur once in 100 years.",good_bad,1,1-in-100-Year Expected Damage from Tropical Cyclones,reference year 2020,"Projected changes in cyclone tracks are generated in a probabilistic way by perturbing the direction of historical storm tracks. Changes in their frequency and intensity are derived from estimates of the current literature. This methodology encounters limitations in areas with few historical events, where it cannot account for potential track locations in the future. The damages are derived with time-independent damage functions, thus do not account for country-specific vulnerabilities and their future changes. Our confidence in the results decreases for high warming levels, which have been attained in a smaller number of the climate model simulations underlying these results, and especially as of 2.5-3°C of global warming."