,wlvl,GFDL-ESM2M_rcp26,GFDL-ESM2M_rcp45,GFDL-ESM2M_rcp60,GFDL-ESM2M_rcp85,HadGEM2-ES_rcp26,HadGEM2-ES_rcp45,HadGEM2-ES_rcp60,HadGEM2-ES_rcp85,IPSL-CM5A-LR_rcp26,IPSL-CM5A-LR_rcp45,IPSL-CM5A-LR_rcp60,IPSL-CM5A-LR_rcp85,MIROC5_rcp26,MIROC5_rcp45,MIROC5_rcp60,MIROC5_rcp85
0,1.0,2015.0,2015.0,2017.0,2016.0,2007.0,2007.0,2006.0,2006.0,2008.0,2011.0,2010.0,2008.0,2012.0,2013.0,2015.0,2012.0
1,1.1,2021.0,2021.0,2025.0,2022.0,2010.0,2010.0,2009.0,2009.0,2013.0,2016.0,2014.0,2013.0,2018.0,2018.0,2024.0,2015.0
2,1.2000000000000002,2030.0,2028.0,2032.0,2027.0,2012.0,2013.0,2012.0,2011.0,2016.0,2019.0,2018.0,2016.0,2025.0,2023.0,2032.0,2019.0
3,1.3000000000000003,2079.0,2034.0,2045.0,2031.0,2014.0,2016.0,2015.0,2013.0,2020.0,2023.0,2022.0,2020.0,2030.0,2028.0,2038.0,2023.0
4,1.4000000000000004,2100.0,2043.0,2053.0,2035.0,2016.0,2019.0,2017.0,2015.0,2024.0,2026.0,2025.0,2023.0,2036.0,2033.0,2043.0,2027.0
5,1.5000000000000004,,2051.0,2059.0,2038.0,2019.0,2023.0,2022.0,2018.0,2030.0,2029.0,2030.0,2025.0,2042.0,2035.0,2048.0,2031.0
6,1.6000000000000005,,2058.0,2062.0,2041.0,2022.0,2026.0,2026.0,2021.0,2036.0,2032.0,2035.0,2028.0,2047.0,2040.0,2053.0,2033.0
7,1.7000000000000006,,2065.0,2065.0,2044.0,2025.0,2030.0,2030.0,2024.0,2045.0,2035.0,2038.0,2031.0,2092.0,2045.0,2058.0,2037.0
8,1.8000000000000007,,2079.0,2068.0,2047.0,2027.0,2033.0,2034.0,2026.0,2062.0,2038.0,2042.0,2033.0,,2051.0,2062.0,2042.0
9,1.9000000000000008,,2092.0,2072.0,2050.0,2036.0,2036.0,2037.0,2029.0,,2041.0,2045.0,2035.0,,2057.0,2066.0,2044.0
10,2.000000000000001,,,2076.0,2053.0,2041.0,2038.0,2042.0,2031.0,,2044.0,2048.0,2037.0,,2063.0,2069.0,2047.0
11,2.100000000000001,,,2081.0,2057.0,2050.0,2042.0,2045.0,2034.0,,2048.0,2052.0,2039.0,,2073.0,2071.0,2049.0
12,2.200000000000001,,,2086.0,2060.0,,2045.0,2049.0,2036.0,,2052.0,2056.0,2040.0,,2079.0,2075.0,2051.0
13,2.300000000000001,,,2093.0,2063.0,,2048.0,2052.0,2039.0,,2055.0,2061.0,2043.0,,2095.0,2078.0,2054.0
14,2.4000000000000012,,,2097.0,2066.0,,2050.0,2055.0,2040.0,,2060.0,2065.0,2044.0,,2097.0,2081.0,2056.0
15,2.5000000000000013,,,,2069.0,,2053.0,2057.0,2042.0,,2067.0,2070.0,2046.0,,,2086.0,2058.0
16,2.6000000000000014,,,,2071.0,,2057.0,2060.0,2044.0,,2072.0,2073.0,2048.0,,,2091.0,2061.0
17,2.7000000000000015,,,,2074.0,,2061.0,2062.0,2046.0,,2087.0,2077.0,2050.0,,,2091.0,2062.0
18,2.8000000000000016,,,,2077.0,,2063.0,2064.0,2048.0,,2095.0,2080.0,2052.0,,,2091.0,2065.0
19,2.9000000000000017,,,,2081.0,,2067.0,2067.0,2050.0,,2106.0,2083.0,2054.0,,,2091.0,2067.0
20,3.0000000000000018,,,,2083.0,,2070.0,2069.0,2052.0,,2150.0,2086.0,2056.0,,,,2069.0
21,3.100000000000002,,,,2086.0,,2075.0,2071.0,2053.0,,2161.0,2089.0,2058.0,,,,2072.0
22,3.200000000000002,,,,2088.0,,2105.0,2073.0,2055.0,,2203.0,,2060.0,,,,2074.0
23,3.300000000000002,,,,2092.0,,2117.0,2076.0,2057.0,,2240.0,,2061.0,,,,2076.0
24,3.400000000000002,,,,2093.0,,2156.0,2080.0,2058.0,,2256.0,,2063.0,,,,2079.0
25,3.500000000000002,,,,2093.0,,2182.0,2083.0,2060.0,,2293.0,,2065.0,,,,2081.0
26,3.6000000000000023,,,,2096.0,,2188.0,2086.0,2062.0,,2298.0,,2066.0,,,,2083.0
27,3.7000000000000024,,,,,,2234.0,,2064.0,,2299.0,,2068.0,,,,2086.0
28,3.8000000000000025,,,,,,2275.0,,2065.0,,,,2070.0,,,,2088.0
29,3.9000000000000026,,,,,,2291.0,,2067.0,,,,2072.0,,,,2090.0
30,4.000000000000003,,,,,,2298.0,,2068.0,,,,2073.0,,,,2091.0
31,4.100000000000003,,,,,,,,2070.0,,,,2075.0,,,,2096.0
32,4.200000000000003,,,,,,,,2072.0,,,,2076.0,,,,2097.0
33,4.3000000000000025,,,,,,,,2074.0,,,,2078.0,,,,2097.0
34,4.400000000000003,,,,,,,,2075.0,,,,2080.0,,,,2098.0
35,4.5000000000000036,,,,,,,,2077.0,,,,2081.0,,,,2098.0
36,4.600000000000003,,,,,,,,2078.0,,,,2083.0,,,,
37,4.700000000000003,,,,,,,,2080.0,,,,2085.0,,,,
38,4.800000000000003,,,,,,,,2082.0,,,,2086.0,,,,
39,4.900000000000004,,,,,,,,2083.0,,,,2088.0,,,,
40,5.0000000000000036,,,,,,,,2085.0,,,,2089.0,,,,
41,5.100000000000003,,,,,,,,2087.0,,,,2091.0,,,,
42,5.200000000000004,,,,,,,,2089.0,,,,2093.0,,,,
43,5.300000000000004,,,,,,,,2091.0,,,,2094.0,,,,
44,5.400000000000004,,,,,,,,2093.0,,,,2096.0,,,,
45,5.5000000000000036,,,,,,,,2095.0,,,,2098.0,,,,
